Data Programming
…
bucket_features <- function(data, features, n_buckets = 10) {
  bind_rows(lapply(features, function(feature) create_buckets(data, feature, n_buckets)))
}

features_to_bucket <- c("danceability", "energy", "key", "loudness", "mode", "speechiness", "acousticness", "instrumentalness", "liveness", "valence", "tempo", "duration_ms", "time_signature")

bucketed_counts <- bucket_features(spotify_data, features_to_bucket)

bucketed_counts

# A tibble: 130 × 3
   bucket count feature     
    <int> <int> <chr>       
 1      1   130 danceability
 2      2   130 danceability
 3      3   130 danceability
 4      4   130 danceability
 5      5   130 danceability
 6      6   130 danceability
 7      7   130 danceability
 8      8   130 danceability
 9      9   130 danceability
10     10   129 danceability
# ℹ 120 more rows
…
bucket_avg_popularity_features <- function(data, features, n_buckets = 10) {
  bind_rows(lapply(features, function(feature) create_avg_popularity_buckets(data, feature, n_buckets)))
}

bucketed_avg_popularity <- bucket_avg_popularity_features(spotify_data, features_to_bucket)

bucketed_avg_popularity

# A tibble: 130 × 3
   bucket avg_popularity feature     
    <int>          <dbl> <chr>       
 1      1           56.2 danceability
 2      2           60.1 danceability
 3      3           59.5 danceability
 4      4           61.8 danceability
 5      5           60.4 danceability
 6      6           58.3 danceability
 7      7           62.4 danceability
 8      8           60.1 danceability
 9      9           63.2 danceability
10     10           61.7 danceability
# ℹ 120 more rows
…
